{
  "databaseChangeLog": [
    {
      "include": {
        "file": "db/changelog/db.changelog-1.0.0.json"
      }
    },
    {
      "include": {
        "file": "db/changelog/db.changelog-2.0.0.json"
      }
    }
  ]
}